…
This dataset contains administrative, compliance, and geographic data on
the NYC transit system. It has 19 columns and 1868 rows. At this point,
the variable names have been cleaned and one variable (entry) has been
recoded so that it is a 0 or 1 instead of a character. Other aspects of
the data have not been further inspected so it is not tidy.

*Additional information*

There are 465 distinct stations in the dataset.

    ## # A tibble: 84 × 2
    ##    line            station_name                  
    ##    <chr>           <chr>                         
    ##  1 4 Avenue        Atlantic Av-Barclays Ctr      
    ##  2 4 Avenue        DeKalb Av                     
    ##  3 4 Avenue        Pacific St                    
    ##  4 42nd St Shuttle Grand Central                 
    ##  5 6 Avenue        34th St                       
    ##  6 6 Avenue        47-50th Sts Rockefeller Center
    ##  7 6 Avenue        Church Av                     
    ##  8 63rd Street     21st St                       
    ##  9 63rd Street     Lexington Av                  
    ## 10 63rd Street     Roosevelt Island              
    ## # … with 74 more rows
…
